module.exports.detect_virus = async (req, res) => {
    try {
        const virusComposition = req.body.virusComposition;
        const bloodComposition = req.body.bloodComposition;
        const sampleCount = req.body.sampleCount;
        const count = 0 ;
        if(count < sampleCount){
        await knex().where({virusComposition:virusComposition}).then((data) => {
                if (data.length > 0){
                    if(bloodComposition == virusComposition){
                        res.send(middlewares.responseMiddleWares('POSITIVE', true, data));
                    }
            }else{
                res.send(resp.responseData('NEGATIVE', false, undefined))
            }
            })
        }
    }
    catch (err) {
        console.log(err);
        res.send(middlewares.responseMiddleWares(err, false));
    }
}